{
  "$schema": "https://bitbucket.org/garrcomm/markdowngenerator/raw/v1/schema/config-schema.json",
  "bootstrap": "../../vendor/autoload.php",
  "inputFiles": [
    "../../src/ClassInfo/*.php",
    "../../src/Controller/*.php",
    "../../src/Service/*.php",
    "../ClassInfo/*.php",
    "../Service/*.php"
  ],
  "outputDir": ".",
  "summaryFile": "summary.md",
  "baseNamespace": "Tests\\TestSubject"
}